-------------------------------------------------------------------------------
Test set: com.tomioka.week5.SelectionSortAppTest
-------------------------------------------------------------------------------
Tests run: 8, Failures: 0, Errors: 0, Skipped: 0, Time elapsed: 0.001 s - in com.tomioka.week5.SelectionSortAppTest
